[{"line":1,"elements":[{"line":3,"name":"get the user by query param","description":"","id":"get-the-user-by-query-param","type":"scenario","keyword":"Scenario","steps":[{"name":"def query = {status:'active', gender: 'male', id:20}","result":{"duration":1687600,"status":"passed"},"match":{"location":"karate","arguments":[]},"keyword":"*","line":4,"doc_string":{"content_type":"","value":"16:23:38.741 karate.env system property was:","line":4}},{"name":"url baseURL+'\/public\/v1\/users'","result":{"duration":2115000,"status":"passed"},"match":{"location":"karate","arguments":[]},"keyword":"Given","line":5},{"name":"params query","result":{"duration":152500,"status":"passed"},"match":{"location":"karate","arguments":[]},"keyword":"And","line":6},{"name":"method GET","result":{"duration":1614625700,"status":"passed"},"match":{"location":"karate","arguments":[]},"keyword":"When","line":7,"doc_string":{"content_type":"","value":"16:23:39.228 request:\n1 > GET https:\/\/gorest.co.in\/public\/v1\/users?status=active&gender=male&id=20\n1 > Accept-Encoding: gzip,deflate\n1 > Connection: Keep-Alive\n1 > Host: gorest.co.in\n1 > User-Agent: Apache-HttpClient\/4.5.12 (Java\/1.8.0_301)\n\n16:23:40.413 response time in milliseconds: 1184.10\n1 < 200\n1 < Cache-Control: max-age=0, private, must-revalidate\n1 < Connection: keep-alive\n1 < Content-Type: application\/json; charset=utf-8\n1 < Date: Tue, 04 Jan 2022 05:23:40 GMT\n1 < ETag: W\/\"96972e48530035b45bc519c5ba43c4d6\"\n1 < Referrer-Policy: strict-origin-when-cross-origin\n1 < Server: nginx\n1 < Strict-Transport-Security: max-age=63072000; includeSubDomains\n1 < Transfer-Encoding: chunked\n1 < Vary: [Accept-Encoding, Origin]\n1 < X-Content-Type-Options: nosniff\n1 < X-Download-Options: noopen\n1 < X-Frame-Options: SAMEORIGIN\n1 < X-Permitted-Cross-Domain-Policies: none\n1 < X-Request-Id: 857b939d-bc5c-4859-bc15-033092608fa5\n1 < X-Runtime: 0.005644\n1 < X-XSS-Protection: 0\n{\"meta\":{\"pagination\":{\"total\":1,\"pages\":1,\"page\":1,\"limit\":20,\"links\":{\"previous\":null,\"current\":\"https:\/\/gorest.co.in\/public\/v1\/users?page=1\",\"next\":null}}},\"data\":[{\"id\":20,\"name\":\"Somu Khanna\",\"email\":\"somu_khanna@erdman.io\",\"gender\":\"male\",\"status\":\"active\"}]}","line":7}},{"name":"status 200","result":{"duration":10500,"status":"passed"},"match":{"location":"karate","arguments":[]},"keyword":"Then","line":8},{"name":"print response","result":{"duration":270700,"status":"passed"},"match":{"location":"karate","arguments":[]},"keyword":"Then","line":9,"doc_string":{"content_type":"","value":"16:23:40.414 [print] {\n  \"data\": [\n    {\n      \"gender\": \"male\",\n      \"name\": \"Somu Khanna\",\n      \"id\": 20,\n      \"email\": \"somu_khanna@erdman.io\",\n      \"status\": \"active\"\n    }\n  ],\n  \"meta\": {\n    \"pagination\": {\n      \"total\": 1,\n      \"pages\": 1,\n      \"limit\": 20,\n      \"links\": {\n        \"next\": null,\n        \"current\": \"https:\/\/gorest.co.in\/public\/v1\/users?page=1\",\n        \"previous\": null\n      },\n      \"page\": 1\n    }\n  }\n}","line":9}},{"name":"def jsonResp = response","result":{"duration":9300,"status":"passed"},"match":{"location":"karate","arguments":[]},"keyword":"*","line":10},{"name":"print jsonResp","result":{"duration":211800,"status":"passed"},"match":{"location":"karate","arguments":[]},"keyword":"*","line":11,"doc_string":{"content_type":"","value":"16:23:40.415 [print] {\n  \"data\": [\n    {\n      \"gender\": \"male\",\n      \"name\": \"Somu Khanna\",\n      \"id\": 20,\n      \"email\": \"somu_khanna@erdman.io\",\n      \"status\": \"active\"\n    }\n  ],\n  \"meta\": {\n    \"pagination\": {\n      \"total\": 1,\n      \"pages\": 1,\n      \"limit\": 20,\n      \"links\": {\n        \"next\": null,\n        \"current\": \"https:\/\/gorest.co.in\/public\/v1\/users?page=1\",\n        \"previous\": null\n      },\n      \"page\": 1\n    }\n  }\n}","line":11}},{"name":"def status = jsonResp.data[0].status","result":{"duration":10346800,"status":"passed"},"match":{"location":"karate","arguments":[]},"keyword":"*","line":12},{"name":"def gender = jsonResp.data[0].gender","result":{"duration":2160300,"status":"passed"},"match":{"location":"karate","arguments":[]},"keyword":"*","line":13},{"name":"match status == 'active'","result":{"duration":1718000,"status":"passed"},"match":{"location":"karate","arguments":[]},"keyword":"*","line":14},{"name":"match gender == 'male'","result":{"duration":1099200,"status":"passed"},"match":{"location":"karate","arguments":[]},"keyword":"*","line":15}]},{"line":17,"name":"get all the users and get the count","description":"","id":"get-all-the-users-and-get-the-count","type":"scenario","keyword":"Scenario","steps":[{"name":"def query = {status:'active'}","result":{"duration":61400,"status":"passed"},"match":{"location":"karate","arguments":[]},"keyword":"*","line":18,"doc_string":{"content_type":"","value":"16:23:40.436 karate.env system property was:","line":18}},{"name":"url baseURL+'\/public\/v1\/users'","result":{"duration":275600,"status":"passed"},"match":{"location":"karate","arguments":[]},"keyword":"Given","line":19},{"name":"params query","result":{"duration":32800,"status":"passed"},"match":{"location":"karate","arguments":[]},"keyword":"And","line":20},{"name":"method GET","result":{"duration":1074035800,"status":"passed"},"match":{"location":"karate","arguments":[]},"keyword":"When","line":21,"doc_string":{"content_type":"","value":"16:23:40.438 request:\n1 > GET https:\/\/gorest.co.in\/public\/v1\/users?status=active\n1 > Accept-Encoding: gzip,deflate\n1 > Connection: Keep-Alive\n1 > Host: gorest.co.in\n1 > User-Agent: Apache-HttpClient\/4.5.12 (Java\/1.8.0_301)\n\n16:23:41.512 response time in milliseconds: 1072.40\n1 < 200\n1 < Cache-Control: max-age=0, private, must-revalidate\n1 < Connection: keep-alive\n1 < Content-Type: application\/json; charset=utf-8\n1 < Date: Tue, 04 Jan 2022 05:23:41 GMT\n1 < ETag: W\/\"1de3194c9d9cc5f022d797b94796c3e8\"\n1 < Referrer-Policy: strict-origin-when-cross-origin\n1 < Server: nginx\n1 < Strict-Transport-Security: max-age=63072000; includeSubDomains\n1 < Transfer-Encoding: chunked\n1 < Vary: [Accept-Encoding, Origin]\n1 < X-Content-Type-Options: nosniff\n1 < X-Download-Options: noopen\n1 < X-Frame-Options: SAMEORIGIN\n1 < X-Permitted-Cross-Domain-Policies: none\n1 < X-Request-Id: c7dec30b-7356-4b26-a7e4-feaf4131eb9c\n1 < X-Runtime: 0.008043\n1 < X-XSS-Protection: 0\n{\"meta\":{\"pagination\":{\"total\":702,\"pages\":36,\"page\":1,\"limit\":20,\"links\":{\"previous\":null,\"current\":\"https:\/\/gorest.co.in\/public\/v1\/users?page=1\",\"next\":\"https:\/\/gorest.co.in\/public\/v1\/users?page=2\"}}},\"data\":[{\"id\":2,\"name\":\"Prof. Chapala Achari\",\"email\":\"chapala_achari_prof@damore.com\",\"gender\":\"male\",\"status\":\"active\"},{\"id\":4,\"name\":\"Karthik Chopra\",\"email\":\"chopra_karthik@feeney.name\",\"gender\":\"male\",\"status\":\"active\"},{\"id\":5,\"name\":\"Bhupen Tagore\",\"email\":\"tagore_bhupen@batz.info\",\"gender\":\"male\",\"status\":\"active\"},{\"id\":6,\"name\":\"Bhagwati Ahuja\",\"email\":\"bhagwati_ahuja@ratke.co\",\"gender\":\"male\",\"status\":\"active\"},{\"id\":8,\"name\":\"Vyas Varman\",\"email\":\"varman_vyas@pfeffer.co\",\"gender\":\"female\",\"status\":\"active\"},{\"id\":9,\"name\":\"Amb. Goswami Achari\",\"email\":\"goswami_achari_amb@schumm.net\",\"gender\":\"male\",\"status\":\"active\"},{\"id\":10,\"name\":\"Divakar Ahluwalia\",\"email\":\"ahluwalia_divakar@koss.biz\",\"gender\":\"female\",\"status\":\"active\"},{\"id\":12,\"name\":\"Amaresh Kocchar\",\"email\":\"amaresh_kocchar@cartwright.com\",\"gender\":\"female\",\"status\":\"active\"},{\"id\":13,\"name\":\"Ms. Bhaaswar Ganaka\",\"email\":\"ganaka_ms_bhaaswar@runolfsdottir.name\",\"gender\":\"male\",\"status\":\"active\"},{\"id\":18,\"name\":\"Anamika Gowda\",\"email\":\"anamika_gowda@jacobs.org\",\"gender\":\"male\",\"status\":\"active\"},{\"id\":20,\"name\":\"Somu Khanna\",\"email\":\"somu_khanna@erdman.io\",\"gender\":\"male\",\"status\":\"active\"},{\"id\":21,\"name\":\"Deeksha Nehru\",\"email\":\"deeksha_nehru@jaskolski.io\",\"gender\":\"female\",\"status\":\"active\"},{\"id\":22,\"name\":\"Atmanand Reddy\",\"email\":\"atmanand_reddy@doyle.info\",\"gender\":\"female\",\"status\":\"active\"},{\"id\":23,\"name\":\"Naveen Panicker\",\"email\":\"panicker_naveen@zieme.co\",\"gender\":\"male\",\"status\":\"active\"},{\"id\":24,\"name\":\"Vimala Nair\",\"email\":\"nair_vimala@okon-larkin.net\",\"gender\":\"female\",\"status\":\"active\"},{\"id\":28,\"name\":\"Dhana Agarwal\",\"email\":\"agarwal_dhana@hermiston.info\",\"gender\":\"female\",\"status\":\"active\"},{\"id\":33,\"name\":\"Mr. Amish Mahajan\",\"email\":\"mr_amish_mahajan@harber-lesch.co\",\"gender\":\"female\",\"status\":\"active\"},{\"id\":35,\"name\":\"Anuja Patel JD\",\"email\":\"jd_anuja_patel@vonrueden.biz\",\"gender\":\"female\",\"status\":\"active\"},{\"id\":37,\"name\":\"Fr. Bharadwaj Nair\",\"email\":\"bharadwaj_fr_nair@schoen-jones.biz\",\"gender\":\"female\",\"status\":\"active\"},{\"id\":39,\"name\":\"Elakshi Bhat\",\"email\":\"elakshi_bhat@ledner-hoeger.io\",\"gender\":\"female\",\"status\":\"active\"}]}","line":21}},{"name":"status 200","result":{"duration":6700,"status":"passed"},"match":{"location":"karate","arguments":[]},"keyword":"Then","line":22},{"name":"print response","result":{"duration":497900,"status":"passed"},"match":{"location":"karate","arguments":[]},"keyword":"Then","line":23,"doc_string":{"content_type":"","value":"16:23:41.513 [print] {\n  \"data\": [\n    {\n      \"gender\": \"male\",\n      \"name\": \"Prof. Chapala Achari\",\n      \"id\": 2,\n      \"email\": \"chapala_achari_prof@damore.com\",\n      \"status\": \"active\"\n    },\n    {\n      \"gender\": \"male\",\n      \"name\": \"Karthik Chopra\",\n      \"id\": 4,\n      \"email\": \"chopra_karthik@feeney.name\",\n      \"status\": \"active\"\n    },\n    {\n      \"gender\": \"male\",\n      \"name\": \"Bhupen Tagore\",\n      \"id\": 5,\n      \"email\": \"tagore_bhupen@batz.info\",\n      \"status\": \"active\"\n    },\n    {\n      \"gender\": \"male\",\n      \"name\": \"Bhagwati Ahuja\",\n      \"id\": 6,\n      \"email\": \"bhagwati_ahuja@ratke.co\",\n      \"status\": \"active\"\n    },\n    {\n      \"gender\": \"female\",\n      \"name\": \"Vyas Varman\",\n      \"id\": 8,\n      \"email\": \"varman_vyas@pfeffer.co\",\n      \"status\": \"active\"\n    },\n    {\n      \"gender\": \"male\",\n      \"name\": \"Amb. Goswami Achari\",\n      \"id\": 9,\n      \"email\": \"goswami_achari_amb@schumm.net\",\n      \"status\": \"active\"\n    },\n    {\n      \"gender\": \"female\",\n      \"name\": \"Divakar Ahluwalia\",\n      \"id\": 10,\n      \"email\": \"ahluwalia_divakar@koss.biz\",\n      \"status\": \"active\"\n    },\n    {\n      \"gender\": \"female\",\n      \"name\": \"Amaresh Kocchar\",\n      \"id\": 12,\n      \"email\": \"amaresh_kocchar@cartwright.com\",\n      \"status\": \"active\"\n    },\n    {\n      \"gender\": \"male\",\n      \"name\": \"Ms. Bhaaswar Ganaka\",\n      \"id\": 13,\n      \"email\": \"ganaka_ms_bhaaswar@runolfsdottir.name\",\n      \"status\": \"active\"\n    },\n    {\n      \"gender\": \"male\",\n      \"name\": \"Anamika Gowda\",\n      \"id\": 18,\n      \"email\": \"anamika_gowda@jacobs.org\",\n      \"status\": \"active\"\n    },\n    {\n      \"gender\": \"male\",\n      \"name\": \"Somu Khanna\",\n      \"id\": 20,\n      \"email\": \"somu_khanna@erdman.io\",\n      \"status\": \"active\"\n    },\n    {\n      \"gender\": \"female\",\n      \"name\": \"Deeksha Nehru\",\n      \"id\": 21,\n      \"email\": \"deeksha_nehru@jaskolski.io\",\n      \"status\": \"active\"\n    },\n    {\n      \"gender\": \"female\",\n      \"name\": \"Atmanand Reddy\",\n      \"id\": 22,\n      \"email\": \"atmanand_reddy@doyle.info\",\n      \"status\": \"active\"\n    },\n    {\n      \"gender\": \"male\",\n      \"name\": \"Naveen Panicker\",\n      \"id\": 23,\n      \"email\": \"panicker_naveen@zieme.co\",\n      \"status\": \"active\"\n    },\n    {\n      \"gender\": \"female\",\n      \"name\": \"Vimala Nair\",\n      \"id\": 24,\n      \"email\": \"nair_vimala@okon-larkin.net\",\n      \"status\": \"active\"\n    },\n    {\n      \"gender\": \"female\",\n      \"name\": \"Dhana Agarwal\",\n      \"id\": 28,\n      \"email\": \"agarwal_dhana@hermiston.info\",\n      \"status\": \"active\"\n    },\n    {\n      \"gender\": \"female\",\n      \"name\": \"Mr. Amish Mahajan\",\n      \"id\": 33,\n      \"email\": \"mr_amish_mahajan@harber-lesch.co\",\n      \"status\": \"active\"\n    },\n    {\n      \"gender\": \"female\",\n      \"name\": \"Anuja Patel JD\",\n      \"id\": 35,\n      \"email\": \"jd_anuja_patel@vonrueden.biz\",\n      \"status\": \"active\"\n    },\n    {\n      \"gender\": \"female\",\n      \"name\": \"Fr. Bharadwaj Nair\",\n      \"id\": 37,\n      \"email\": \"bharadwaj_fr_nair@schoen-jones.biz\",\n      \"status\": \"active\"\n    },\n    {\n      \"gender\": \"female\",\n      \"name\": \"Elakshi Bhat\",\n      \"id\": 39,\n      \"email\": \"elakshi_bhat@ledner-hoeger.io\",\n      \"status\": \"active\"\n    }\n  ],\n  \"meta\": {\n    \"pagination\": {\n      \"total\": 702,\n      \"pages\": 36,\n      \"limit\": 20,\n      \"links\": {\n        \"next\": \"https:\/\/gorest.co.in\/public\/v1\/users?page=2\",\n        \"current\": \"https:\/\/gorest.co.in\/public\/v1\/users?page=1\",\n        \"previous\": null\n      },\n      \"page\": 1\n    }\n  }\n}","line":23}},{"name":"def jsonResp = response","result":{"duration":9100,"status":"passed"},"match":{"location":"karate","arguments":[]},"keyword":"*","line":24},{"name":"print jsonResp","result":{"duration":364000,"status":"passed"},"match":{"location":"karate","arguments":[]},"keyword":"*","line":25,"doc_string":{"content_type":"","value":"16:23:41.513 [print] {\n  \"data\": [\n    {\n      \"gender\": \"male\",\n      \"name\": \"Prof. Chapala Achari\",\n      \"id\": 2,\n      \"email\": \"chapala_achari_prof@damore.com\",\n      \"status\": \"active\"\n    },\n    {\n      \"gender\": \"male\",\n      \"name\": \"Karthik Chopra\",\n      \"id\": 4,\n      \"email\": \"chopra_karthik@feeney.name\",\n      \"status\": \"active\"\n    },\n    {\n      \"gender\": \"male\",\n      \"name\": \"Bhupen Tagore\",\n      \"id\": 5,\n      \"email\": \"tagore_bhupen@batz.info\",\n      \"status\": \"active\"\n    },\n    {\n      \"gender\": \"male\",\n      \"name\": \"Bhagwati Ahuja\",\n      \"id\": 6,\n      \"email\": \"bhagwati_ahuja@ratke.co\",\n      \"status\": \"active\"\n    },\n    {\n      \"gender\": \"female\",\n      \"name\": \"Vyas Varman\",\n      \"id\": 8,\n      \"email\": \"varman_vyas@pfeffer.co\",\n      \"status\": \"active\"\n    },\n    {\n      \"gender\": \"male\",\n      \"name\": \"Amb. Goswami Achari\",\n      \"id\": 9,\n      \"email\": \"goswami_achari_amb@schumm.net\",\n      \"status\": \"active\"\n    },\n    {\n      \"gender\": \"female\",\n      \"name\": \"Divakar Ahluwalia\",\n      \"id\": 10,\n      \"email\": \"ahluwalia_divakar@koss.biz\",\n      \"status\": \"active\"\n    },\n    {\n      \"gender\": \"female\",\n      \"name\": \"Amaresh Kocchar\",\n      \"id\": 12,\n      \"email\": \"amaresh_kocchar@cartwright.com\",\n      \"status\": \"active\"\n    },\n    {\n      \"gender\": \"male\",\n      \"name\": \"Ms. Bhaaswar Ganaka\",\n      \"id\": 13,\n      \"email\": \"ganaka_ms_bhaaswar@runolfsdottir.name\",\n      \"status\": \"active\"\n    },\n    {\n      \"gender\": \"male\",\n      \"name\": \"Anamika Gowda\",\n      \"id\": 18,\n      \"email\": \"anamika_gowda@jacobs.org\",\n      \"status\": \"active\"\n    },\n    {\n      \"gender\": \"male\",\n      \"name\": \"Somu Khanna\",\n      \"id\": 20,\n      \"email\": \"somu_khanna@erdman.io\",\n      \"status\": \"active\"\n    },\n    {\n      \"gender\": \"female\",\n      \"name\": \"Deeksha Nehru\",\n      \"id\": 21,\n      \"email\": \"deeksha_nehru@jaskolski.io\",\n      \"status\": \"active\"\n    },\n    {\n      \"gender\": \"female\",\n      \"name\": \"Atmanand Reddy\",\n      \"id\": 22,\n      \"email\": \"atmanand_reddy@doyle.info\",\n      \"status\": \"active\"\n    },\n    {\n      \"gender\": \"male\",\n      \"name\": \"Naveen Panicker\",\n      \"id\": 23,\n      \"email\": \"panicker_naveen@zieme.co\",\n      \"status\": \"active\"\n    },\n    {\n      \"gender\": \"female\",\n      \"name\": \"Vimala Nair\",\n      \"id\": 24,\n      \"email\": \"nair_vimala@okon-larkin.net\",\n      \"status\": \"active\"\n    },\n    {\n      \"gender\": \"female\",\n      \"name\": \"Dhana Agarwal\",\n      \"id\": 28,\n      \"email\": \"agarwal_dhana@hermiston.info\",\n      \"status\": \"active\"\n    },\n    {\n      \"gender\": \"female\",\n      \"name\": \"Mr. Amish Mahajan\",\n      \"id\": 33,\n      \"email\": \"mr_amish_mahajan@harber-lesch.co\",\n      \"status\": \"active\"\n    },\n    {\n      \"gender\": \"female\",\n      \"name\": \"Anuja Patel JD\",\n      \"id\": 35,\n      \"email\": \"jd_anuja_patel@vonrueden.biz\",\n      \"status\": \"active\"\n    },\n    {\n      \"gender\": \"female\",\n      \"name\": \"Fr. Bharadwaj Nair\",\n      \"id\": 37,\n      \"email\": \"bharadwaj_fr_nair@schoen-jones.biz\",\n      \"status\": \"active\"\n    },\n    {\n      \"gender\": \"female\",\n      \"name\": \"Elakshi Bhat\",\n      \"id\": 39,\n      \"email\": \"elakshi_bhat@ledner-hoeger.io\",\n      \"status\": \"active\"\n    }\n  ],\n  \"meta\": {\n    \"pagination\": {\n      \"total\": 702,\n      \"pages\": 36,\n      \"limit\": 20,\n      \"links\": {\n        \"next\": \"https:\/\/gorest.co.in\/public\/v1\/users?page=2\",\n        \"current\": \"https:\/\/gorest.co.in\/public\/v1\/users?page=1\",\n        \"previous\": null\n      },\n      \"page\": 1\n    }\n  }\n}","line":25}},{"name":"def userCount = jsonResp.data.length","result":{"duration":2262300,"status":"passed"},"match":{"location":"karate","arguments":[]},"keyword":"*","line":26},{"name":"print userCount","result":{"duration":138700,"status":"passed"},"match":{"location":"karate","arguments":[]},"keyword":"*","line":27,"doc_string":{"content_type":"","value":"16:23:41.516 [print] 20","line":27}},{"name":"match userCount ==20","result":{"duration":1139500,"status":"passed"},"match":{"location":"karate","arguments":[]},"keyword":"*","line":28}]}],"name":"src\/test\/java\/examples\/users\/getUserbyQueryParm.feature","description":"get User by query parameters","id":"get-user-by-query-parameters","keyword":"Feature","uri":"src\/test\/java\/examples\/users\/getUserbyQueryParm.feature"}]